xof 0302txt 0064
template Header {
 <3D82AB43-62DA-11cf-AB39-0020AF71E433>
 WORD major;
 WORD minor;
 DWORD flags;
}

template Vector {
 <3D82AB5E-62DA-11cf-AB39-0020AF71E433>
 FLOAT x;
 FLOAT y;
 FLOAT z;
}

template Coords2d {
 <F6F23F44-7686-11cf-8F52-0040333594A3>
 FLOAT u;
 FLOAT v;
}

template Matrix4x4 {
 <F6F23F45-7686-11cf-8F52-0040333594A3>
 array FLOAT matrix[16];
}

template ColorRGBA {
 <35FF44E0-6C7C-11cf-8F52-0040333594A3>
 FLOAT red;
 FLOAT green;
 FLOAT blue;
 FLOAT alpha;
}

template ColorRGB {
 <D3E16E81-7835-11cf-8F52-0040333594A3>
 FLOAT red;
 FLOAT green;
 FLOAT blue;
}

template IndexedColor {
 <1630B820-7842-11cf-8F52-0040333594A3>
 DWORD index;
 ColorRGBA indexColor;
}

template Boolean {
 <4885AE61-78E8-11cf-8F52-0040333594A3>
 WORD truefalse;
}

template Boolean2d {
 <4885AE63-78E8-11cf-8F52-0040333594A3>
 Boolean u;
 Boolean v;
}

template MaterialWrap {
 <4885AE60-78E8-11cf-8F52-0040333594A3>
 Boolean u;
 Boolean v;
}

template TextureFilename {
 <A42790E1-7810-11cf-8F52-0040333594A3>
 STRING filename;
}

template Material {
 <3D82AB4D-62DA-11cf-AB39-0020AF71E433>
 ColorRGBA faceColor;
 FLOAT power;
 ColorRGB specularColor;
 ColorRGB emissiveColor;
 [...]
}

template MeshFace {
 <3D82AB5F-62DA-11cf-AB39-0020AF71E433>
 DWORD nFaceVertexIndices;
 array DWORD faceVertexIndices[nFaceVertexIndices];
}

template MeshFaceWraps {
 <4885AE62-78E8-11cf-8F52-0040333594A3>
 DWORD nFaceWrapValues;
 Boolean2d faceWrapValues;
}

template MeshTextureCoords {
 <F6F23F40-7686-11cf-8F52-0040333594A3>
 DWORD nTextureCoords;
 array Coords2d textureCoords[nTextureCoords];
}

template MeshMaterialList {
 <F6F23F42-7686-11cf-8F52-0040333594A3>
 DWORD nMaterials;
 DWORD nFaceIndexes;
 array DWORD faceIndexes[nFaceIndexes];
 [Material]
}

template MeshNormals {
 <F6F23F43-7686-11cf-8F52-0040333594A3>
 DWORD nNormals;
 array Vector normals[nNormals];
 DWORD nFaceNormals;
 array MeshFace faceNormals[nFaceNormals];
}

template MeshVertexColors {
 <1630B821-7842-11cf-8F52-0040333594A3>
 DWORD nVertexColors;
 array IndexedColor vertexColors[nVertexColors];
}

template Mesh {
 <3D82AB44-62DA-11cf-AB39-0020AF71E433>
 DWORD nVertices;
 array Vector vertices[nVertices];
 DWORD nFaces;
 array MeshFace faces[nFaces];
 [...]
}

Header{
1;
0;
1;
}

Mesh {
 18;
 0.00000;500.00000;-6480.44971;,
 0.00000;-500.00000;-5000.00000;,
 3535.53394;-500.00000;-3535.53394;,
 4582.37012;500.00000;-4582.37012;,
 5000.00000;-500.00000;0.00020;,
 6480.44971;500.00000;0.00026;,
 3535.53394;-500.00000;3535.53394;,
 4582.37012;500.00000;4582.37012;,
 -0.00040;-500.00000;5000.00000;,
 -0.00052;500.00000;6480.44971;,
 -3535.53442;-500.00000;3535.53320;,
 -4582.37061;500.00000;4582.36963;,
 -5000.00000;-500.00000;-0.00010;,
 -6480.44971;500.00000;-0.00013;,
 -3535.53442;-500.00000;-3535.53345;,
 -4582.37061;500.00000;-4582.36963;,
 0.00000;-500.00000;-5000.00000;,
 0.00000;500.00000;-6480.44971;;
 
 8;
 4;0,1,2,3;,
 4;3,2,4,5;,
 4;5,4,6,7;,
 4;7,6,8,9;,
 4;9,8,10,11;,
 4;11,10,12,13;,
 4;13,12,14,15;,
 4;15,14,16,17;;
 
 MeshMaterialList {
  1;
  8;
  0,
  0,
  0,
  0,
  0,
  0,
  0,
  0;;
  Material {
   1.000000;1.000000;1.000000;1.000000;;
   0.000000;
   0.000000;0.000000;0.000000;;
   0.000000;0.000000;0.000000;;
   TextureFilename {
    "..\\..\\AirHack\\data\\MODEL\\cloudRound.tga";
   }
  }
 }
 MeshNormals {
  8;
  0.000000;0.828668;0.559741;,
  -0.395796;0.828668;0.395796;,
  -0.559741;0.828668;-0.000000;,
  -0.395796;0.828668;-0.395796;,
  0.000000;0.828668;-0.559741;,
  0.395796;0.828668;-0.395796;,
  0.559741;0.828668;-0.000000;,
  0.395796;0.828668;0.395796;;
  8;
  4;0,0,1,1;,
  4;1,1,2,2;,
  4;2,2,3,3;,
  4;3,3,4,4;,
  4;4,4,5,5;,
  4;5,5,6,6;,
  4;6,6,7,7;,
  4;7,7,0,0;;
 }
 MeshTextureCoords {
  18;
  0.000000;0.000000;,
  0.000000;1.000000;,
  0.125000;1.000000;,
  0.125000;0.000000;,
  0.250000;1.000000;,
  0.250000;0.000000;,
  0.375000;1.000000;,
  0.375000;0.000000;,
  0.500000;1.000000;,
  0.500000;0.000000;,
  0.625000;1.000000;,
  0.625000;0.000000;,
  0.750000;1.000000;,
  0.750000;0.000000;,
  0.875000;1.000000;,
  0.875000;0.000000;,
  1.000000;1.000000;,
  1.000000;0.000000;;
 }
}
