xof 0302txt 0064
template Header {
 <3D82AB43-62DA-11cf-AB39-0020AF71E433>
 WORD major;
 WORD minor;
 DWORD flags;
}

template Vector {
 <3D82AB5E-62DA-11cf-AB39-0020AF71E433>
 FLOAT x;
 FLOAT y;
 FLOAT z;
}

template Coords2d {
 <F6F23F44-7686-11cf-8F52-0040333594A3>
 FLOAT u;
 FLOAT v;
}

template Matrix4x4 {
 <F6F23F45-7686-11cf-8F52-0040333594A3>
 array FLOAT matrix[16];
}

template ColorRGBA {
 <35FF44E0-6C7C-11cf-8F52-0040333594A3>
 FLOAT red;
 FLOAT green;
 FLOAT blue;
 FLOAT alpha;
}

template ColorRGB {
 <D3E16E81-7835-11cf-8F52-0040333594A3>
 FLOAT red;
 FLOAT green;
 FLOAT blue;
}

template IndexedColor {
 <1630B820-7842-11cf-8F52-0040333594A3>
 DWORD index;
 ColorRGBA indexColor;
}

template Boolean {
 <4885AE61-78E8-11cf-8F52-0040333594A3>
 WORD truefalse;
}

template Boolean2d {
 <4885AE63-78E8-11cf-8F52-0040333594A3>
 Boolean u;
 Boolean v;
}

template MaterialWrap {
 <4885AE60-78E8-11cf-8F52-0040333594A3>
 Boolean u;
 Boolean v;
}

template TextureFilename {
 <A42790E1-7810-11cf-8F52-0040333594A3>
 STRING filename;
}

template Material {
 <3D82AB4D-62DA-11cf-AB39-0020AF71E433>
 ColorRGBA faceColor;
 FLOAT power;
 ColorRGB specularColor;
 ColorRGB emissiveColor;
 [...]
}

template MeshFace {
 <3D82AB5F-62DA-11cf-AB39-0020AF71E433>
 DWORD nFaceVertexIndices;
 array DWORD faceVertexIndices[nFaceVertexIndices];
}

template MeshFaceWraps {
 <4885AE62-78E8-11cf-8F52-0040333594A3>
 DWORD nFaceWrapValues;
 Boolean2d faceWrapValues;
}

template MeshTextureCoords {
 <F6F23F40-7686-11cf-8F52-0040333594A3>
 DWORD nTextureCoords;
 array Coords2d textureCoords[nTextureCoords];
}

template MeshMaterialList {
 <F6F23F42-7686-11cf-8F52-0040333594A3>
 DWORD nMaterials;
 DWORD nFaceIndexes;
 array DWORD faceIndexes[nFaceIndexes];
 [Material]
}

template MeshNormals {
 <F6F23F43-7686-11cf-8F52-0040333594A3>
 DWORD nNormals;
 array Vector normals[nNormals];
 DWORD nFaceNormals;
 array MeshFace faceNormals[nFaceNormals];
}

template MeshVertexColors {
 <1630B821-7842-11cf-8F52-0040333594A3>
 DWORD nVertexColors;
 array IndexedColor vertexColors[nVertexColors];
}

template Mesh {
 <3D82AB44-62DA-11cf-AB39-0020AF71E433>
 DWORD nVertices;
 array Vector vertices[nVertices];
 DWORD nFaces;
 array MeshFace faces[nFaces];
 [...]
}

Header{
1;
0;
1;
}

Mesh {
 254;
 0.00000;0.21408;42.61900;,
 1.49230;1.47356;39.37490;,
 0.00000;1.99526;39.37490;,
 0.00000;0.21408;42.61900;,
 2.11040;0.21408;39.37490;,
 0.00000;0.21408;42.61900;,
 1.49230;-0.43796;39.37490;,
 0.00000;0.21408;42.61900;,
 0.00000;-0.70805;39.37480;,
 2.75730;2.54131;30.13620;,
 0.00000;3.50534;30.13620;,
 3.89940;0.21408;30.13620;,
 2.75730;-0.99073;30.13620;,
 0.00000;-1.48976;30.13620;,
 3.60260;3.25474;16.30960;,
 0.00000;4.51431;16.30960;,
 5.09490;0.21408;16.30960;,
 3.60260;-1.36009;16.30960;,
 0.00000;-2.01213;16.30960;,
 3.89940;3.50534;0.00000;,
 0.00000;4.86854;0.00000;,
 5.51460;0.21408;0.00000;,
 3.89940;-1.48976;-0.00000;,
 0.00000;-2.19554;-0.00000;,
 4.37119;4.01631;-16.30960;,
 0.00000;4.51431;-16.30960;,
 5.09490;0.21408;-16.30960;,
 3.60260;-1.36009;-16.30960;,
 0.00000;-2.01213;-16.30960;,
 3.34935;4.92400;-30.13620;,
 0.00000;5.88803;-30.13620;,
 4.73668;0.21408;-30.13620;,
 3.34935;-0.99073;-30.13620;,
 0.00000;-1.48976;-30.13620;,
 2.26089;1.82152;-38.07448;,
 0.00000;3.53274;-38.07438;,
 2.11040;0.21408;-39.37490;,
 1.49230;-0.43796;-39.37490;,
 0.00000;-0.70805;-39.37490;,
 0.00000;0.21408;-42.61900;,
 0.00000;0.21408;-42.61900;,
 0.00000;0.21408;-42.61900;,
 0.00000;0.21408;-42.61900;,
 -1.49230;1.47356;39.37490;,
 -2.11040;0.21408;39.37490;,
 -1.49230;-0.43796;39.37490;,
 -2.75730;2.54131;30.13620;,
 -3.89940;0.21408;30.13620;,
 -2.75730;-0.99073;30.13620;,
 -3.60260;3.25474;16.30960;,
 -5.09490;0.21408;16.30960;,
 -3.60260;-1.36009;16.30960;,
 -3.89940;3.50534;0.00000;,
 -5.51460;0.21408;0.00000;,
 -3.89940;-1.48976;0.00000;,
 -4.37119;4.01631;-16.30960;,
 -5.09490;0.21408;-16.30960;,
 -3.60260;-1.36009;-16.30960;,
 -3.34935;4.92400;-30.13620;,
 -4.73668;0.21408;-30.13620;,
 -3.34935;-0.99073;-30.13620;,
 -2.26089;1.82152;-38.07448;,
 -2.11040;0.21408;-39.37490;,
 -1.49230;-0.43796;-39.37490;,
 -0.00170;4.02042;-15.16601;,
 3.04230;3.16332;-15.16601;,
 3.59016;4.91759;-19.69071;,
 -0.00170;6.50133;-19.69071;,
 0.60027;1.09408;-15.16601;,
 3.19441;1.60491;-19.69071;,
 3.59393;7.07086;-24.12004;,
 -0.00170;9.14010;-24.12004;,
 4.60991;1.37705;-24.12004;,
 3.89013;8.18323;-28.67268;,
 -0.00170;10.42300;-28.67268;,
 4.08688;0.97711;-28.67268;,
 3.59393;7.77165;-32.24414;,
 -0.00170;9.84089;-32.24414;,
 3.85095;0.81695;-32.24414;,
 2.75023;6.59949;-35.27196;,
 -0.00170;8.18323;-35.27196;,
 2.82888;0.25656;-35.27196;,
 1.48764;4.84522;-37.29509;,
 -0.00170;5.70232;-37.29509;,
 2.54418;0.55146;-38.72106;,
 -0.00170;0.40382;-41.15627;,
 -0.00170;0.40382;-41.15627;,
 0.00170;6.50133;-19.69071;,
 -3.59016;4.91759;-19.69071;,
 -3.04230;3.16332;-15.16601;,
 0.00170;4.02042;-15.16601;,
 -3.19441;1.60491;-19.69071;,
 -0.60027;1.09408;-15.16601;,
 0.00170;9.14010;-24.12004;,
 -3.59393;7.07086;-24.12004;,
 -4.60991;1.37705;-24.12004;,
 0.00170;10.42300;-28.67268;,
 -3.89013;8.18323;-28.67268;,
 -4.08688;0.97711;-28.67268;,
 0.00170;9.84089;-32.24414;,
 -3.59393;7.77165;-32.24414;,
 -3.85095;0.81695;-32.24414;,
 0.00170;8.18323;-35.27196;,
 -2.75023;6.59949;-35.27196;,
 -2.82888;0.25656;-35.27196;,
 0.00170;5.70232;-37.29509;,
 -1.48764;4.84522;-37.29509;,
 -2.54418;0.55146;-38.72106;,
 0.00170;0.40382;-41.15627;,
 0.00170;0.40382;-41.15627;,
 59.24030;1.82196;-10.55624;,
 59.24030;1.27848;-9.09090;,
 44.38290;0.88062;-8.49692;,
 44.38290;1.82196;-11.03497;,
 59.24030;1.27848;-6.57409;,
 44.38290;0.88062;-4.62156;,
 59.24030;1.82196;-5.10875;,
 44.38290;1.82196;-2.08351;,
 59.24030;2.36545;-6.57410;,
 44.38290;2.76330;-4.62156;,
 59.24030;2.36545;-9.09090;,
 44.38290;2.76330;-8.49692;,
 59.24030;1.82196;-10.55624;,
 44.38290;1.82196;-11.03497;,
 24.08734;0.73499;-8.17948;,
 24.08734;1.82196;-11.11016;,
 24.08734;0.73499;-2.31810;,
 24.08734;1.82196;0.61258;,
 24.08734;2.90893;-2.31811;,
 24.08734;2.90893;-8.17948;,
 24.08734;1.82196;-11.11016;,
 3.79174;0.88062;-8.33181;,
 3.79174;1.82196;-11.41484;,
 3.79174;0.88062;-2.16577;,
 3.79174;1.82196;0.91725;,
 3.79174;2.76330;-2.16577;,
 3.79174;2.76330;-8.33181;,
 3.79174;1.82196;-11.41484;,
 -44.38290;1.82196;-11.03497;,
 -44.38290;0.88062;-8.49692;,
 -59.24030;1.27848;-9.09090;,
 -59.24030;1.82196;-10.55624;,
 -44.38290;0.88062;-4.62156;,
 -59.24030;1.27848;-6.57409;,
 -44.38290;1.82196;-2.08351;,
 -59.24030;1.82196;-5.10875;,
 -44.38290;2.76330;-4.62156;,
 -59.24030;2.36545;-6.57410;,
 -44.38290;2.76330;-8.49692;,
 -59.24030;2.36545;-9.09090;,
 -44.38290;1.82196;-11.03497;,
 -59.24030;1.82196;-10.55624;,
 -24.08734;1.82196;-11.11016;,
 -24.08734;0.73499;-8.17948;,
 -24.08734;0.73499;-2.31810;,
 -24.08734;1.82196;0.61258;,
 -24.08734;2.90893;-2.31811;,
 -24.08734;2.90893;-8.17948;,
 -24.08734;1.82196;-11.11016;,
 -3.79174;1.82196;-11.41484;,
 -3.79174;0.88062;-8.33181;,
 -3.79174;0.88062;-2.16577;,
 -3.79174;1.82196;0.91725;,
 -3.79174;2.76330;-2.16577;,
 -3.79174;2.76330;-8.33181;,
 -3.79174;1.82196;-11.41484;,
 24.02811;9.90840;31.92850;,
 23.95249;10.09147;30.73849;,
 17.38768;7.12079;30.19498;,
 17.51867;6.80369;32.25614;,
 23.94799;10.14228;28.68775;,
 17.38076;7.19902;27.03729;,
 24.01838;10.01838;27.48982;,
 17.50268;6.98441;24.96239;,
 24.09401;9.83530;28.67983;,
 17.63366;6.66732;27.02357;,
 24.09851;9.78448;30.73056;,
 17.64059;6.58907;30.18125;,
 24.02811;9.90840;31.92850;,
 17.51867;6.80369;32.25614;,
 8.47436;2.94042;29.85212;,
 8.62561;2.57427;32.23214;,
 8.46388;3.05876;25.07620;,
 8.60467;2.81094;22.68034;,
 8.75592;2.44479;25.06036;,
 8.76639;2.32645;29.83626;,
 8.62561;2.57427;32.23214;,
 -0.39903;-0.11745;29.88992;,
 -0.26706;-0.44554;32.39515;,
 -0.41004;0.00704;24.86576;,
 -0.28909;-0.19657;22.34681;,
 -0.15712;-0.52467;24.85203;,
 -0.14612;-0.64916;29.87619;,
 -0.26706;-0.44554;32.39515;,
 -17.51867;6.80369;32.25614;,
 -17.38768;7.12079;30.19498;,
 -23.95249;10.09147;30.73849;,
 -24.02811;9.90840;31.92850;,
 -17.38076;7.19902;27.03729;,
 -23.94799;10.14228;28.68775;,
 -17.50268;6.98441;24.96239;,
 -24.01838;10.01838;27.48982;,
 -17.63366;6.66732;27.02357;,
 -24.09401;9.83530;28.67983;,
 -17.64059;6.58907;30.18125;,
 -24.09851;9.78448;30.73056;,
 -17.51867;6.80369;32.25614;,
 -24.02811;9.90840;31.92850;,
 -8.62561;2.57427;32.23214;,
 -8.47436;2.94042;29.85212;,
 -8.46388;3.05876;25.07620;,
 -8.60467;2.81094;22.68034;,
 -8.75592;2.44479;25.06036;,
 -8.76639;2.32645;29.83626;,
 -8.62561;2.57427;32.23214;,
 0.26706;-0.44554;32.39515;,
 0.39903;-0.11745;29.88992;,
 0.41004;0.00704;24.86576;,
 0.28909;-0.19657;22.34681;,
 0.15712;-0.52467;24.85203;,
 0.14612;-0.64916;29.87619;,
 0.26706;-0.44554;32.39515;,
 0.06398;-13.00934;30.80192;,
 0.24721;-13.00934;29.71011;,
 0.38133;-9.77990;29.26756;,
 0.06398;-9.77989;31.15862;,
 0.24721;-13.00934;27.83492;,
 0.38133;-9.77990;26.38012;,
 0.06398;-13.00934;26.74310;,
 0.06398;-9.77990;24.48907;,
 0.43043;-5.36840;29.03103;,
 0.06398;-5.36840;31.21462;,
 0.43043;-5.36840;24.66386;,
 0.06398;-5.36840;22.48027;,
 0.38133;-0.95689;29.14453;,
 0.06397;-0.95689;31.44166;,
 0.38133;-0.95689;24.55037;,
 0.06398;-0.95689;22.25325;,
 -0.06398;-9.77989;31.15862;,
 -0.38133;-9.77990;29.26756;,
 -0.24721;-13.00934;29.71011;,
 -0.06398;-13.00934;30.80192;,
 -0.38133;-9.77990;26.38012;,
 -0.24721;-13.00934;27.83492;,
 -0.06398;-9.77990;24.48907;,
 -0.06398;-13.00934;26.74310;,
 -0.06398;-5.36840;31.21462;,
 -0.43043;-5.36840;29.03103;,
 -0.43043;-5.36840;24.66386;,
 -0.06398;-5.36840;22.48027;,
 -0.06397;-0.95689;31.44166;,
 -0.38133;-0.95689;29.14453;,
 -0.38133;-0.95689;24.55037;,
 -0.06398;-0.95689;22.25325;;
 
 226;
 3;0,1,2;,
 3;3,4,1;,
 3;5,6,4;,
 3;7,8,6;,
 4;2,1,9,10;,
 4;1,4,11,9;,
 4;4,6,12,11;,
 4;6,8,13,12;,
 4;10,9,14,15;,
 4;9,11,16,14;,
 4;11,12,17,16;,
 4;12,13,18,17;,
 4;15,14,19,20;,
 4;14,16,21,19;,
 4;16,17,22,21;,
 4;17,18,23,22;,
 4;20,19,24,25;,
 4;19,21,26,24;,
 4;21,22,27,26;,
 4;22,23,28,27;,
 4;25,24,29,30;,
 4;24,26,31,29;,
 4;26,27,32,31;,
 4;27,28,33,32;,
 4;30,29,34,35;,
 4;29,31,36,34;,
 4;31,32,37,36;,
 4;32,33,38,37;,
 3;35,34,39;,
 3;34,36,40;,
 3;36,37,41;,
 3;37,38,42;,
 3;2,43,0;,
 3;43,44,3;,
 3;44,45,5;,
 3;45,8,7;,
 4;10,46,43,2;,
 4;46,47,44,43;,
 4;47,48,45,44;,
 4;48,13,8,45;,
 4;15,49,46,10;,
 4;49,50,47,46;,
 4;50,51,48,47;,
 4;51,18,13,48;,
 4;20,52,49,15;,
 4;52,53,50,49;,
 4;53,54,51,50;,
 4;54,23,18,51;,
 4;25,55,52,20;,
 4;55,56,53,52;,
 4;56,57,54,53;,
 4;57,28,23,54;,
 4;30,58,55,25;,
 4;58,59,56,55;,
 4;59,60,57,56;,
 4;60,33,28,57;,
 4;35,61,58,30;,
 4;61,62,59,58;,
 4;62,63,60,59;,
 4;63,38,33,60;,
 3;39,61,35;,
 3;40,62,61;,
 3;41,63,62;,
 3;42,38,63;,
 4;64,65,66,67;,
 4;65,68,69,66;,
 4;67,66,70,71;,
 4;66,69,72,70;,
 4;71,70,73,74;,
 4;70,72,75,73;,
 4;74,73,76,77;,
 4;73,75,78,76;,
 4;77,76,79,80;,
 4;76,78,81,79;,
 4;80,79,82,83;,
 4;79,81,84,82;,
 3;83,82,85;,
 3;82,84,86;,
 4;87,88,89,90;,
 4;88,91,92,89;,
 4;93,94,88,87;,
 4;94,95,91,88;,
 4;96,97,94,93;,
 4;97,98,95,94;,
 4;99,100,97,96;,
 4;100,101,98,97;,
 4;102,103,100,99;,
 4;103,104,101,100;,
 4;105,106,103,102;,
 4;106,107,104,103;,
 3;108,106,105;,
 3;109,107,106;,
 4;64,90,89,65;,
 4;67,87,90,64;,
 4;65,89,92,68;,
 4;68,92,91,69;,
 4;71,93,87,67;,
 4;69,91,95,72;,
 4;74,96,93,71;,
 4;72,95,98,75;,
 4;77,99,96,74;,
 4;75,98,101,78;,
 4;80,102,99,77;,
 4;78,101,104,81;,
 4;83,105,102,80;,
 4;81,104,107,84;,
 4;85,108,105,83;,
 4;84,107,109,86;,
 4;110,111,112,113;,
 4;111,114,115,112;,
 4;114,116,117,115;,
 4;116,118,119,117;,
 4;118,120,121,119;,
 4;120,122,123,121;,
 4;113,112,124,125;,
 4;112,115,126,124;,
 4;115,117,127,126;,
 4;117,119,128,127;,
 4;119,121,129,128;,
 4;121,123,130,129;,
 4;125,124,131,132;,
 4;124,126,133,131;,
 4;126,127,134,133;,
 4;127,128,135,134;,
 4;128,129,136,135;,
 4;129,130,137,136;,
 3;120,111,110;,
 3;120,118,111;,
 3;118,114,111;,
 3;116,114,118;,
 4;138,139,140,141;,
 4;139,142,143,140;,
 4;142,144,145,143;,
 4;144,146,147,145;,
 4;146,148,149,147;,
 4;148,150,151,149;,
 4;152,153,139,138;,
 4;153,154,142,139;,
 4;154,155,144,142;,
 4;155,156,146,144;,
 4;156,157,148,146;,
 4;157,158,150,148;,
 4;159,160,153,152;,
 4;160,161,154,153;,
 4;161,162,155,154;,
 4;162,163,156,155;,
 4;163,164,157,156;,
 4;164,165,158,157;,
 3;141,140,149;,
 3;140,147,149;,
 3;140,143,147;,
 3;147,143,145;,
 4;166,167,168,169;,
 4;167,170,171,168;,
 4;170,172,173,171;,
 4;172,174,175,173;,
 4;174,176,177,175;,
 4;176,178,179,177;,
 4;169,168,180,181;,
 4;168,171,182,180;,
 4;171,173,183,182;,
 4;173,175,184,183;,
 4;175,177,185,184;,
 4;177,179,186,185;,
 4;181,180,187,188;,
 4;180,182,189,187;,
 4;182,183,190,189;,
 4;183,184,191,190;,
 4;184,185,192,191;,
 4;185,186,193,192;,
 3;176,167,166;,
 3;176,174,167;,
 3;174,170,167;,
 3;172,170,174;,
 4;194,195,196,197;,
 4;195,198,199,196;,
 4;198,200,201,199;,
 4;200,202,203,201;,
 4;202,204,205,203;,
 4;204,206,207,205;,
 4;208,209,195,194;,
 4;209,210,198,195;,
 4;210,211,200,198;,
 4;211,212,202,200;,
 4;212,213,204,202;,
 4;213,214,206,204;,
 4;215,216,209,208;,
 4;216,217,210,209;,
 4;217,218,211,210;,
 4;218,219,212,211;,
 4;219,220,213,212;,
 4;220,221,214,213;,
 3;197,196,205;,
 3;196,203,205;,
 3;196,199,203;,
 3;203,199,201;,
 4;222,223,224,225;,
 4;223,226,227,224;,
 4;226,228,229,227;,
 4;225,224,230,231;,
 4;224,227,232,230;,
 4;227,229,233,232;,
 4;231,230,234,235;,
 4;230,232,236,234;,
 4;232,233,237,236;,
 4;238,239,240,241;,
 4;239,242,243,240;,
 4;242,244,245,243;,
 4;246,247,239,238;,
 4;247,248,242,239;,
 4;248,249,244,242;,
 4;250,251,247,246;,
 4;251,252,248,247;,
 4;252,253,249,248;,
 4;222,241,240,223;,
 4;225,238,241,222;,
 4;223,240,243,226;,
 4;226,243,245,228;,
 4;228,245,244,229;,
 4;231,246,238,225;,
 4;229,244,249,233;,
 4;234,251,250,235;,
 4;235,250,246,231;,
 4;236,252,251,234;,
 4;233,249,253,237;,
 4;237,253,252,236;;
 
 MeshMaterialList {
  2;
  226;
  0,
  0,
  0,
  0,
  0,
  0,
  0,
  0,
  0,
  0,
  0,
  0,
  0,
  0,
  0,
  0,
  0,
  0,
  0,
  0,
  0,
  0,
  0,
  0,
  0,
  0,
  0,
  0,
  0,
  0,
  0,
  0,
  0,
  0,
  0,
  0,
  0,
  0,
  0,
  0,
  0,
  0,
  0,
  0,
  0,
  0,
  0,
  0,
  0,
  0,
  0,
  0,
  0,
  0,
  0,
  0,
  0,
  0,
  0,
  0,
  0,
  0,
  0,
  0,
  0,
  0,
  0,
  0,
  0,
  0,
  0,
  0,
  0,
  0,
  0,
  0,
  0,
  0,
  0,
  0,
  0,
  0,
  0,
  0,
  0,
  0,
  0,
  0,
  0,
  0,
  0,
  0,
  0,
  0,
  0,
  0,
  0,
  0,
  0,
  0,
  0,
  0,
  0,
  0,
  0,
  0,
  0,
  0,
  0,
  0,
  0,
  0,
  0,
  0,
  0,
  0,
  0,
  0,
  0,
  0,
  0,
  0,
  0,
  0,
  0,
  0,
  0,
  0,
  0,
  0,
  0,
  0,
  0,
  0,
  0,
  0,
  0,
  0,
  0,
  0,
  0,
  0,
  0,
  0,
  0,
  0,
  0,
  0,
  0,
  0,
  0,
  0,
  0,
  0,
  0,
  0,
  0,
  0,
  0,
  0,
  0,
  0,
  0,
  0,
  0,
  0,
  0,
  0,
  0,
  0,
  0,
  0,
  0,
  0,
  0,
  0,
  0,
  0,
  0,
  0,
  0,
  0,
  0,
  0,
  0,
  0,
  0,
  0,
  0,
  0,
  0,
  0,
  0,
  0,
  0,
  0,
  0,
  0,
  0,
  0,
  0,
  0,
  0,
  0,
  0,
  0,
  0,
  0,
  0,
  0,
  0,
  0,
  0,
  0,
  0,
  0,
  0,
  0,
  0,
  0,
  0,
  0,
  0,
  0,
  0,
  0;;
  Material {
   1.000000;0.635294;0.650980;1.000000;;
   56.000000;
   0.090000;0.090000;0.090000;;
   0.000000;0.000000;0.000000;;
  }
  Material {
   1.000000;1.000000;1.000000;1.000000;;
   0.000000;
   0.000000;0.000000;0.000000;;
   0.000000;0.000000;0.000000;;
  }
 }
 MeshNormals {
  316;
  0.295971;0.785213;0.543913;,
  0.000000;0.945053;0.326918;,
  0.619358;0.702716;0.350122;,
  0.843189;0.413801;0.343221;,
  0.456534;-0.855816;0.243221;,
  0.000000;-0.983714;0.179743;,
  0.000000;0.993110;0.117184;,
  0.657821;0.742400;0.126939;,
  0.890739;0.437141;0.124466;,
  0.473285;-0.876827;0.084717;,
  0.000000;-0.998135;0.061050;,
  0.000000;0.998882;0.047268;,
  0.662546;0.747265;0.051266;,
  0.896583;0.440014;0.050260;,
  0.475161;-0.879239;0.034075;,
  0.000000;-0.999700;0.024500;,
  0.000000;0.999897;0.014327;,
  0.667480;0.744464;0.015642;,
  0.925118;0.379407;0.014398;,
  0.475521;-0.879705;-0.000000;,
  0.000000;-1.000000;-0.000000;,
  0.000000;0.999094;0.042556;,
  0.682321;0.730907;0.014564;,
  0.960998;0.276055;-0.016657;,
  0.461235;-0.886973;-0.023274;,
  -0.000000;-0.999745;-0.022586;,
  0.000000;0.990768;-0.135565;,
  0.598607;0.777428;-0.193069;,
  0.947122;-0.286439;-0.144612;,
  0.444550;-0.891607;-0.086094;,
  -0.000000;-0.998174;-0.060406;,
  0.000000;0.879979;-0.475012;,
  0.714358;0.555207;-0.425956;,
  0.888332;-0.228123;-0.398530;,
  0.440512;-0.860829;-0.254798;,
  -0.000000;-0.983504;-0.180885;,
  0.671098;0.527851;-0.520577;,
  -0.619358;0.702716;0.350122;,
  -0.843189;0.413801;0.343221;,
  -0.456534;-0.855816;0.243221;,
  -0.657821;0.742400;0.126939;,
  -0.890739;0.437141;0.124466;,
  -0.473285;-0.876827;0.084717;,
  -0.662546;0.747265;0.051266;,
  -0.896583;0.440014;0.050260;,
  -0.475161;-0.879239;0.034075;,
  -0.667480;0.744464;0.015642;,
  -0.925118;0.379407;0.014398;,
  -0.475521;-0.879705;-0.000000;,
  -0.682321;0.730907;0.014564;,
  -0.960998;0.276055;-0.016657;,
  -0.461235;-0.886973;-0.023274;,
  -0.598607;0.777428;-0.193069;,
  -0.947122;-0.286439;-0.144612;,
  -0.444550;-0.891607;-0.086094;,
  -0.714358;0.555207;-0.425956;,
  -0.888332;-0.228123;-0.398530;,
  -0.440512;-0.860829;-0.254798;,
  0.306736;0.857289;0.413484;,
  0.868437;-0.459058;0.187306;,
  0.357219;0.832159;0.424153;,
  0.954547;-0.220830;0.200185;,
  0.448123;0.827904;0.337285;,
  0.824136;0.511891;0.242419;,
  0.993984;0.067039;0.086617;,
  0.498181;0.865654;0.049585;,
  0.850841;0.525419;-0.002132;,
  0.996385;0.066826;-0.052461;,
  0.477724;0.830109;-0.287573;,
  0.830252;0.486763;-0.271557;,
  0.981328;0.027994;-0.190292;,
  0.403199;0.700615;-0.588701;,
  0.753553;0.431800;-0.495688;,
  0.948667;0.081384;-0.305625;,
  0.331525;0.576074;-0.747148;,
  0.597885;0.447625;-0.664955;,
  0.814815;0.269563;-0.513237;,
  0.482465;0.476925;-0.734690;,
  -0.306736;0.857289;0.413484;,
  -0.868437;-0.459058;0.187306;,
  -0.357219;0.832159;0.424153;,
  -0.954547;-0.220830;0.200185;,
  -0.448123;0.827904;0.337285;,
  -0.824136;0.511891;0.242419;,
  -0.993984;0.067039;0.086617;,
  -0.498181;0.865654;0.049585;,
  -0.850841;0.525419;-0.002132;,
  -0.996385;0.066826;-0.052461;,
  -0.477724;0.830109;-0.287573;,
  -0.830252;0.486763;-0.271557;,
  -0.981328;0.027994;-0.190292;,
  -0.403199;0.700615;-0.588701;,
  -0.753553;0.431800;-0.495688;,
  -0.948667;0.081384;-0.305625;,
  -0.331525;0.576074;-0.747148;,
  -0.597885;0.447625;-0.664955;,
  -0.814815;0.269563;-0.513237;,
  -0.482465;0.476925;-0.734690;,
  0.011204;-0.937531;-0.347722;,
  0.019290;-0.984086;-0.176643;,
  0.049488;-0.983102;0.176245;,
  0.070630;-0.935248;0.346876;,
  0.049488;0.983102;0.176245;,
  0.019290;0.984086;-0.176643;,
  0.006246;-0.937571;-0.347737;,
  0.011795;-0.984203;-0.176652;,
  0.038292;-0.983577;0.176380;,
  0.058392;-0.935990;0.347151;,
  0.038292;0.983577;0.176380;,
  0.011795;0.984203;-0.176652;,
  0.000711;-0.942602;-0.333919;,
  0.000361;-0.985547;-0.169401;,
  0.011743;-0.985488;0.169341;,
  0.023148;-0.942352;0.333823;,
  0.011743;0.985488;0.169341;,
  0.000361;0.985547;-0.169401;,
  0.000133;-0.947410;-0.320021;,
  -0.003568;-0.986758;-0.162158;,
  -0.003568;-0.986758;0.162158;,
  0.000133;-0.947410;0.320022;,
  -0.003568;0.986758;0.162158;,
  -0.003568;0.986758;-0.162158;,
  -0.011204;-0.937531;-0.347722;,
  -0.019290;-0.984086;-0.176643;,
  -0.049488;-0.983102;0.176245;,
  -0.070630;-0.935248;0.346876;,
  -0.049488;0.983102;0.176245;,
  -0.019290;0.984086;-0.176643;,
  -0.006246;-0.937571;-0.347737;,
  -0.011795;-0.984203;-0.176652;,
  -0.038292;-0.983577;0.176380;,
  -0.058392;-0.935990;0.347151;,
  -0.038292;0.983577;0.176380;,
  -0.011795;0.984203;-0.176652;,
  -0.000711;-0.942602;-0.333919;,
  -0.000361;-0.985547;-0.169401;,
  -0.011743;-0.985488;0.169341;,
  -0.023148;-0.942352;0.333823;,
  -0.011743;0.985488;0.169341;,
  -0.000361;0.985547;-0.169401;,
  -0.000133;-0.947410;-0.320021;,
  0.003568;-0.986758;-0.162158;,
  0.003568;-0.986758;0.162158;,
  -0.000133;-0.947410;0.320022;,
  0.003568;0.986758;0.162158;,
  0.003568;0.986758;-0.162158;,
  -0.417927;0.893551;0.164025;,
  -0.416894;0.904084;0.093977;,
  -0.398661;0.915892;-0.047022;,
  -0.381469;0.916915;-0.117255;,
  0.457580;-0.884239;-0.093503;,
  0.439738;-0.896870;0.047476;,
  -0.420984;0.892119;0.164001;,
  -0.421303;0.902042;0.093938;,
  -0.405397;0.912926;-0.047105;,
  -0.389172;0.913657;-0.117371;,
  0.451028;-0.887589;-0.093596;,
  0.435372;-0.899000;0.047434;,
  -0.371873;0.914718;0.158120;,
  -0.374777;0.922623;0.091148;,
  -0.367774;0.928893;-0.043601;,
  -0.357882;0.927177;-0.110741;,
  0.382208;-0.919572;-0.091126;,
  0.375233;-0.925899;0.043718;,
  -0.318469;0.935710;0.151738;,
  -0.322708;0.942388;0.088117;,
  -0.322601;0.945693;-0.039915;,
  -0.318255;0.942306;-0.103799;,
  0.318202;-0.943917;-0.088142;,
  0.318094;-0.947220;0.039883;,
  0.417927;0.893551;0.164025;,
  0.416894;0.904084;0.093977;,
  0.398661;0.915892;-0.047022;,
  0.381469;0.916915;-0.117255;,
  -0.457580;-0.884239;-0.093503;,
  -0.439738;-0.896870;0.047476;,
  0.420984;0.892119;0.164001;,
  0.421303;0.902042;0.093938;,
  0.405397;0.912926;-0.047105;,
  0.389172;0.913657;-0.117371;,
  -0.451028;-0.887589;-0.093596;,
  -0.435372;-0.899000;0.047434;,
  0.371873;0.914718;0.158120;,
  0.374777;0.922623;0.091148;,
  0.367774;0.928893;-0.043601;,
  0.357882;0.927177;-0.110741;,
  -0.382208;-0.919572;-0.091126;,
  -0.375233;-0.925899;0.043718;,
  0.318469;0.935710;0.151738;,
  0.322708;0.942388;0.088117;,
  0.322601;0.945693;-0.039915;,
  0.318255;0.942306;-0.103799;,
  -0.318202;-0.943917;-0.088142;,
  -0.318094;-0.947220;0.039883;,
  0.986045;-0.018277;0.165475;,
  0.996096;-0.029992;0.083029;,
  0.993495;-0.078446;-0.082543;,
  0.979695;-0.114751;-0.164408;,
  0.986158;-0.010189;0.165496;,
  0.996378;-0.018316;0.083041;,
  0.994712;-0.060887;-0.082708;,
  0.981752;-0.094970;-0.164756;,
  0.987382;-0.001132;0.158355;,
  0.996840;-0.000568;0.079430;,
  0.996667;-0.018899;-0.079355;,
  0.986682;-0.037684;-0.158233;,
  0.988504;-0.000163;0.151197;,
  0.997106;0.005499;0.075818;,
  0.997107;0.005499;-0.075818;,
  0.988504;-0.000163;-0.151196;,
  -0.986045;-0.018277;0.165475;,
  -0.996096;-0.029992;0.083029;,
  -0.993495;-0.078446;-0.082543;,
  -0.979695;-0.114751;-0.164408;,
  -0.986158;-0.010189;0.165496;,
  -0.996378;-0.018316;0.083041;,
  -0.994712;-0.060887;-0.082708;,
  -0.981752;-0.094970;-0.164756;,
  -0.987382;-0.001132;0.158355;,
  -0.996840;-0.000568;0.079430;,
  -0.996667;-0.018899;-0.079355;,
  -0.986682;-0.037684;-0.158233;,
  -0.988504;-0.000163;0.151197;,
  -0.997106;0.005499;0.075818;,
  -0.997107;0.005499;-0.075818;,
  -0.988504;-0.000163;-0.151196;,
  0.236497;-0.907181;0.347983;,
  0.695363;-0.659170;0.286295;,
  0.722029;-0.684456;0.100971;,
  0.725131;-0.687410;0.040659;,
  0.725728;-0.687982;-0.000000;,
  0.708665;-0.705199;-0.022099;,
  0.971253;0.234848;-0.038908;,
  0.236498;-0.907179;-0.347988;,
  -0.775208;0.380439;0.504300;,
  -0.695363;-0.659170;0.286295;,
  -0.656277;-0.622118;0.426931;,
  -0.722029;-0.684456;0.100971;,
  -0.725131;-0.687410;0.040659;,
  -0.725728;-0.687982;0.000000;,
  -0.708665;-0.705199;-0.022099;,
  -0.971253;0.234848;-0.038908;,
  -0.671098;0.527851;-0.520577;,
  -0.656277;-0.622118;-0.426931;,
  0.000000;0.000000;0.000000;,
  0.000000;-0.868110;-0.496372;,
  0.000000;-0.876843;-0.480777;,
  0.000000;0.000000;1.000000;,
  0.000000;-0.993687;-0.112185;,
  0.000000;-0.999535;-0.030507;,
  0.000000;-0.918716;-0.394918;,
  0.000000;-0.997585;0.069455;,
  0.000000;-0.998401;-0.056521;,
  0.000000;-0.997808;0.066170;,
  0.000000;-0.945641;0.325213;,
  0.000000;-0.993519;0.113666;,
  0.000000;-0.768824;0.639461;,
  0.000000;-0.998807;0.048839;,
  0.000000;-0.610688;0.791871;,
  0.000000;-0.996365;-0.085191;,
  0.000000;-0.588942;0.808175;,
  0.070630;0.935248;0.346876;,
  0.058392;0.935990;0.347151;,
  0.011204;0.937531;-0.347722;,
  0.006246;0.937571;-0.347738;,
  0.023148;0.942352;0.333822;,
  0.000711;0.942602;-0.333919;,
  0.000133;0.947410;0.320022;,
  0.000133;0.947410;-0.320021;,
  1.000000;0.000000;-0.000000;,
  -0.058392;0.935990;0.347151;,
  -0.070630;0.935248;0.346876;,
  -0.006246;0.937571;-0.347738;,
  -0.011204;0.937531;-0.347722;,
  -0.023148;0.942352;0.333822;,
  -0.000711;0.942602;-0.333919;,
  -0.000133;0.947410;0.320022;,
  -0.000133;0.947410;-0.320021;,
  -1.000000;0.000000;0.000000;,
  0.467818;-0.868596;-0.163359;,
  0.460429;-0.872512;-0.163491;,
  0.432321;-0.893982;0.117873;,
  0.429282;-0.895449;0.117846;,
  0.386855;-0.908486;-0.158101;,
  0.372960;-0.921184;0.110997;,
  0.318600;-0.935666;-0.151731;,
  0.318385;-0.942262;0.103791;,
  0.903099;0.429346;0.008657;,
  0.903099;0.429345;0.008657;,
  0.903099;0.429345;0.008659;,
  0.903100;0.429343;0.008657;,
  0.903100;0.429342;0.008658;,
  0.903100;0.429342;0.008660;,
  -0.460429;-0.872512;-0.163491;,
  -0.467818;-0.868596;-0.163359;,
  -0.429282;-0.895449;0.117846;,
  -0.432321;-0.893982;0.117873;,
  -0.386855;-0.908486;-0.158101;,
  -0.372960;-0.921184;0.110997;,
  -0.318600;-0.935666;-0.151731;,
  -0.318385;-0.942262;0.103791;,
  -0.903099;0.429345;0.008659;,
  -0.903099;0.429345;0.008657;,
  -0.903099;0.429346;0.008657;,
  -0.903100;0.429343;0.008657;,
  -0.903100;0.429342;0.008658;,
  -0.903100;0.429342;0.008660;,
  0.000000;-0.061311;0.998119;,
  0.000000;-0.109783;0.993956;,
  0.000000;-0.886662;-0.462418;,
  0.000000;-0.495428;-0.868649;,
  0.000000;-0.032052;0.999486;,
  0.000000;-0.237078;-0.971491;,
  0.000000;1.000000;0.000000;,
  0.000000;-0.051398;0.998678;,
  0.000000;-0.051394;-0.998678;;
  226;
  3;0,2,1;,
  3;0,3,2;,
  3;226,4,227;,
  3;226,5,4;,
  4;1,2,7,6;,
  4;2,3,8,7;,
  4;227,4,9,228;,
  4;4,5,10,9;,
  4;6,7,12,11;,
  4;7,8,13,12;,
  4;228,9,14,229;,
  4;9,10,15,14;,
  4;11,12,17,16;,
  4;12,13,18,17;,
  4;229,14,19,230;,
  4;14,15,20,19;,
  4;16,17,22,21;,
  4;17,18,23,22;,
  4;230,19,24,231;,
  4;19,20,25,24;,
  4;21,22,27,26;,
  4;22,23,28,232;,
  4;231,24,29,28;,
  4;24,25,30,29;,
  4;26,27,32,31;,
  4;27,28,33,32;,
  4;28,29,34,33;,
  4;29,30,35,34;,
  3;31,32,36;,
  3;32,33,36;,
  3;33,34,233;,
  3;34,35,233;,
  3;1,37,0;,
  3;37,38,234;,
  3;235,39,236;,
  3;39,5,226;,
  4;6,40,37,1;,
  4;40,41,38,37;,
  4;237,42,39,235;,
  4;42,10,5,39;,
  4;11,43,40,6;,
  4;43,44,41,40;,
  4;238,45,42,237;,
  4;45,15,10,42;,
  4;16,46,43,11;,
  4;46,47,44,43;,
  4;239,48,45,238;,
  4;48,20,15,45;,
  4;21,49,46,16;,
  4;49,50,47,46;,
  4;240,51,48,239;,
  4;51,25,20,48;,
  4;26,52,49,21;,
  4;241,53,50,49;,
  4;53,54,51,240;,
  4;54,30,25,51;,
  4;31,55,52,26;,
  4;55,56,53,52;,
  4;56,57,54,53;,
  4;57,35,30,54;,
  3;242,55,31;,
  3;242,56,55;,
  3;243,57,56;,
  3;233,35,57;,
  4;58,58,60,60;,
  4;59,59,61,61;,
  4;60,60,63,62;,
  4;61,61,64,63;,
  4;62,63,66,65;,
  4;63,64,67,66;,
  4;65,66,69,68;,
  4;66,67,70,69;,
  4;68,69,72,71;,
  4;69,70,73,72;,
  4;71,72,75,74;,
  4;72,73,76,75;,
  3;74,75,77;,
  3;75,76,77;,
  4;80,80,78,78;,
  4;81,81,79,79;,
  4;82,83,80,80;,
  4;83,84,81,81;,
  4;85,86,83,82;,
  4;86,87,84,83;,
  4;88,89,86,85;,
  4;89,90,87,86;,
  4;91,92,89,88;,
  4;92,93,90,89;,
  4;94,95,92,91;,
  4;95,96,93,92;,
  3;97,95,94;,
  3;97,96,95;,
  4;244,244,244,244;,
  4;245,245,246,246;,
  4;247,247,247,247;,
  4;248,248,249,249;,
  4;250,250,245,245;,
  4;249,249,251,251;,
  4;252,252,250,250;,
  4;251,251,253,253;,
  4;254,254,252,252;,
  4;253,253,255,255;,
  4;256,256,254,254;,
  4;255,255,257,257;,
  4;258,258,256,256;,
  4;257,257,259,259;,
  4;260,260,258,258;,
  4;244,244,244,244;,
  4;98,99,105,104;,
  4;99,100,106,105;,
  4;100,101,107,106;,
  4;261,102,108,262;,
  4;102,103,109,108;,
  4;103,263,264,109;,
  4;104,105,111,110;,
  4;105,106,112,111;,
  4;106,107,113,112;,
  4;262,108,114,265;,
  4;108,109,115,114;,
  4;109,264,266,115;,
  4;110,111,117,116;,
  4;111,112,118,117;,
  4;112,113,119,118;,
  4;265,114,120,267;,
  4;114,115,121,120;,
  4;115,266,268,121;,
  3;269,269,269;,
  3;269,269,269;,
  3;269,269,269;,
  3;269,269,269;,
  4;128,129,123,122;,
  4;129,130,124,123;,
  4;130,131,125,124;,
  4;270,132,126,271;,
  4;132,133,127,126;,
  4;133,272,273,127;,
  4;134,135,129,128;,
  4;135,136,130,129;,
  4;136,137,131,130;,
  4;274,138,132,270;,
  4;138,139,133,132;,
  4;139,275,272,133;,
  4;140,141,135,134;,
  4;141,142,136,135;,
  4;142,143,137,136;,
  4;276,144,138,274;,
  4;144,145,139,138;,
  4;145,277,275,139;,
  3;278,278,278;,
  3;278,278,278;,
  3;278,278,278;,
  3;278,278,278;,
  4;146,147,153,152;,
  4;147,148,154,153;,
  4;148,149,155,154;,
  4;279,150,156,280;,
  4;150,151,157,156;,
  4;151,281,282,157;,
  4;152,153,159,158;,
  4;153,154,160,159;,
  4;154,155,161,160;,
  4;280,156,162,283;,
  4;156,157,163,162;,
  4;157,282,284,163;,
  4;158,159,165,164;,
  4;159,160,166,165;,
  4;160,161,167,166;,
  4;283,162,168,285;,
  4;162,163,169,168;,
  4;163,284,286,169;,
  3;287,288,289;,
  3;287,290,288;,
  3;290,291,288;,
  3;292,291,290;,
  4;176,177,171,170;,
  4;177,178,172,171;,
  4;178,179,173,172;,
  4;293,180,174,294;,
  4;180,181,175,174;,
  4;181,295,296,175;,
  4;182,183,177,176;,
  4;183,184,178,177;,
  4;184,185,179,178;,
  4;297,186,180,293;,
  4;186,187,181,180;,
  4;187,298,295,181;,
  4;188,189,183,182;,
  4;189,190,184,183;,
  4;190,191,185,184;,
  4;299,192,186,297;,
  4;192,193,187,186;,
  4;193,300,298,187;,
  3;301,302,303;,
  3;302,304,303;,
  3;302,305,304;,
  3;304,305,306;,
  4;194,195,199,198;,
  4;195,196,200,199;,
  4;196,197,201,200;,
  4;198,199,203,202;,
  4;199,200,204,203;,
  4;200,201,205,204;,
  4;202,203,207,206;,
  4;203,204,208,207;,
  4;204,205,209,208;,
  4;214,215,211,210;,
  4;215,216,212,211;,
  4;216,217,213,212;,
  4;218,219,215,214;,
  4;219,220,216,215;,
  4;220,221,217,216;,
  4;222,223,219,218;,
  4;223,224,220,219;,
  4;224,225,221,220;,
  4;20,20,20,20;,
  4;307,307,308,308;,
  4;20,20,20,20;,
  4;20,20,309,309;,
  4;309,309,310,310;,
  4;311,311,307,307;,
  4;310,310,312,312;,
  4;313,313,313,313;,
  4;314,314,311,311;,
  4;313,313,313,313;,
  4;312,312,315,315;,
  4;313,313,313,313;;
 }
 MeshTextureCoords {
  254;
  0.062500;0.000000;,
  0.125000;0.125000;,
  0.000000;0.125000;,
  0.187500;0.000000;,
  0.250000;0.125000;,
  0.312500;0.000000;,
  0.375000;0.125000;,
  0.437500;0.000000;,
  0.500000;0.125000;,
  0.125000;0.250000;,
  0.000000;0.250000;,
  0.250000;0.250000;,
  0.375000;0.250000;,
  0.500000;0.250000;,
  0.125000;0.375000;,
  0.000000;0.375000;,
  0.250000;0.375000;,
  0.375000;0.375000;,
  0.500000;0.375000;,
  0.125000;0.500000;,
  0.000000;0.500000;,
  0.250000;0.500000;,
  0.375000;0.500000;,
  0.500000;0.500000;,
  0.125000;0.625000;,
  0.000000;0.625000;,
  0.250000;0.625000;,
  0.375000;0.625000;,
  0.500000;0.625000;,
  0.125000;0.750000;,
  0.000000;0.750000;,
  0.250000;0.750000;,
  0.375000;0.750000;,
  0.500000;0.750000;,
  0.125000;0.875000;,
  0.000000;0.875000;,
  0.250000;0.875000;,
  0.375000;0.875000;,
  0.500000;0.875000;,
  0.062500;1.000000;,
  0.187500;1.000000;,
  0.312500;1.000000;,
  0.437500;1.000000;,
  0.125000;0.125000;,
  0.250000;0.125000;,
  0.375000;0.125000;,
  0.125000;0.250000;,
  0.250000;0.250000;,
  0.375000;0.250000;,
  0.125000;0.375000;,
  0.250000;0.375000;,
  0.375000;0.375000;,
  0.125000;0.500000;,
  0.250000;0.500000;,
  0.375000;0.500000;,
  0.125000;0.625000;,
  0.250000;0.625000;,
  0.375000;0.625000;,
  0.125000;0.750000;,
  0.250000;0.750000;,
  0.375000;0.750000;,
  0.125000;0.875000;,
  0.250000;0.875000;,
  0.375000;0.875000;,
  0.000000;0.125000;,
  0.125000;0.125000;,
  0.125000;0.250000;,
  0.000000;0.250000;,
  0.250000;0.125000;,
  0.250000;0.250000;,
  0.125000;0.375000;,
  0.000000;0.375000;,
  0.250000;0.375000;,
  0.125000;0.500000;,
  0.000000;0.500000;,
  0.250000;0.500000;,
  0.125000;0.625000;,
  0.000000;0.625000;,
  0.250000;0.625000;,
  0.125000;0.750000;,
  0.000000;0.750000;,
  0.250000;0.750000;,
  0.125000;0.875000;,
  0.000000;0.875000;,
  0.250000;0.875000;,
  0.062500;1.000000;,
  0.187500;1.000000;,
  0.000000;0.250000;,
  0.125000;0.250000;,
  0.125000;0.125000;,
  0.000000;0.125000;,
  0.250000;0.250000;,
  0.250000;0.125000;,
  0.000000;0.375000;,
  0.125000;0.375000;,
  0.250000;0.375000;,
  0.000000;0.500000;,
  0.125000;0.500000;,
  0.250000;0.500000;,
  0.000000;0.625000;,
  0.125000;0.625000;,
  0.250000;0.625000;,
  0.000000;0.750000;,
  0.125000;0.750000;,
  0.250000;0.750000;,
  0.000000;0.875000;,
  0.125000;0.875000;,
  0.250000;0.875000;,
  0.062500;1.000000;,
  0.187500;1.000000;,
  0.000000;0.166667;,
  0.166667;0.166667;,
  0.166667;0.333333;,
  0.000000;0.333333;,
  0.333333;0.166667;,
  0.333333;0.333333;,
  0.500000;0.166667;,
  0.500000;0.333333;,
  0.666667;0.166667;,
  0.666667;0.333333;,
  0.833333;0.166667;,
  0.833333;0.333333;,
  1.000000;0.166667;,
  1.000000;0.333333;,
  0.166667;0.500000;,
  0.000000;0.500000;,
  0.333333;0.500000;,
  0.500000;0.500000;,
  0.666667;0.500000;,
  0.833333;0.500000;,
  1.000000;0.500000;,
  0.166667;0.666667;,
  0.000000;0.666667;,
  0.333333;0.666667;,
  0.500000;0.666667;,
  0.666667;0.666667;,
  0.833333;0.666667;,
  1.000000;0.666667;,
  0.000000;0.333333;,
  0.166667;0.333333;,
  0.166667;0.166667;,
  0.000000;0.166667;,
  0.333333;0.333333;,
  0.333333;0.166667;,
  0.500000;0.333333;,
  0.500000;0.166667;,
  0.666667;0.333333;,
  0.666667;0.166667;,
  0.833333;0.333333;,
  0.833333;0.166667;,
  1.000000;0.333333;,
  1.000000;0.166667;,
  0.000000;0.500000;,
  0.166667;0.500000;,
  0.333333;0.500000;,
  0.500000;0.500000;,
  0.666667;0.500000;,
  0.833333;0.500000;,
  1.000000;0.500000;,
  0.000000;0.666667;,
  0.166667;0.666667;,
  0.333333;0.666667;,
  0.500000;0.666667;,
  0.666667;0.666667;,
  0.833333;0.666667;,
  1.000000;0.666667;,
  0.000000;0.166667;,
  0.166667;0.166667;,
  0.166667;0.333333;,
  0.000000;0.333333;,
  0.333333;0.166667;,
  0.333333;0.333333;,
  0.500000;0.166667;,
  0.500000;0.333333;,
  0.666667;0.166667;,
  0.666667;0.333333;,
  0.833333;0.166667;,
  0.833333;0.333333;,
  1.000000;0.166667;,
  1.000000;0.333333;,
  0.166667;0.500000;,
  0.000000;0.500000;,
  0.333333;0.500000;,
  0.500000;0.500000;,
  0.666667;0.500000;,
  0.833333;0.500000;,
  1.000000;0.500000;,
  0.166667;0.666667;,
  0.000000;0.666667;,
  0.333333;0.666667;,
  0.500000;0.666667;,
  0.666667;0.666667;,
  0.833333;0.666667;,
  1.000000;0.666667;,
  0.000000;0.333333;,
  0.166667;0.333333;,
  0.166667;0.166667;,
  0.000000;0.166667;,
  0.333333;0.333333;,
  0.333333;0.166667;,
  0.500000;0.333333;,
  0.500000;0.166667;,
  0.666667;0.333333;,
  0.666667;0.166667;,
  0.833333;0.333333;,
  0.833333;0.166667;,
  1.000000;0.333333;,
  1.000000;0.166667;,
  0.000000;0.500000;,
  0.166667;0.500000;,
  0.333333;0.500000;,
  0.500000;0.500000;,
  0.666667;0.500000;,
  0.833333;0.500000;,
  1.000000;0.500000;,
  0.000000;0.666667;,
  0.166667;0.666667;,
  0.333333;0.666667;,
  0.500000;0.666667;,
  0.666667;0.666667;,
  0.833333;0.666667;,
  1.000000;0.666667;,
  0.000000;0.166667;,
  0.166667;0.166667;,
  0.166667;0.333333;,
  0.000000;0.333333;,
  0.333333;0.166667;,
  0.333333;0.333333;,
  0.500000;0.166667;,
  0.500000;0.333333;,
  0.166667;0.500000;,
  0.000000;0.500000;,
  0.333333;0.500000;,
  0.500000;0.500000;,
  0.166667;0.666667;,
  0.000000;0.666667;,
  0.333333;0.666667;,
  0.500000;0.666667;,
  0.000000;0.333333;,
  0.166667;0.333333;,
  0.166667;0.166667;,
  0.000000;0.166667;,
  0.333333;0.333333;,
  0.333333;0.166667;,
  0.500000;0.333333;,
  0.500000;0.166667;,
  0.000000;0.500000;,
  0.166667;0.500000;,
  0.333333;0.500000;,
  0.500000;0.500000;,
  0.000000;0.666667;,
  0.166667;0.666667;,
  0.333333;0.666667;,
  0.500000;0.666667;;
 }
}
